\relax 
\providecommand\hyper@newdestlabel[2]{}
\@writefile{toc}{\contentsline {chapter}{\numberline {2}M\IeC {\^o} h\IeC {\`\i }nh Boosted Tree}{8}{chapter.2}}
\@writefile{lof}{\addvspace {10\p@ }}
\@writefile{lot}{\addvspace {10\p@ }}
\@writefile{toc}{\contentsline {section}{\numberline {2.1}H\IeC {\d o}c c\IeC {\'o} gi\IeC {\'a}m s\IeC {\'a}t - Supervised Learning}{8}{section.2.1}}
\@writefile{toc}{\contentsline {subsection}{\numberline {2.1.1}Gi\IeC {\'\ohorn }i thi\IeC {\d \ecircumflex }u}{8}{subsection.2.1.1}}
\@writefile{lof}{\contentsline {figure}{\numberline {2.1}{\ignorespaces M\IeC {\^o} h\IeC {\`\i }nh ho\IeC {\d a}t \IeC {\dj }\IeC {\d \ocircumflex }ng c\IeC {\h u}a H\IeC {\d o}c c\IeC {\'o} gi\IeC {\'a}m s\IeC {\'a}t\relax }}{8}{figure.caption.13}}
\newlabel{fig:my_labe3}{{2.1}{8}{Mô hình hoạt động của Học có giám sát\relax }{figure.caption.13}{}}
\@writefile{toc}{\contentsline {subsection}{\numberline {2.1.2}H\IeC {\`a}m m\IeC {\d u}c ti\IeC {\^e}u}{9}{subsection.2.1.2}}
\newlabel{fig:f1}{{\caption@xref {fig:f1}{ on input line 65}}{10}{Hàm mục tiêu}{figure.caption.14}{}}
\newlabel{fig:f2}{{\caption@xref {fig:f2}{ on input line 70}}{10}{Hàm mục tiêu}{figure.caption.14}{}}
\newlabel{fig:f3}{{\caption@xref {fig:f3}{ on input line 75}}{10}{Hàm mục tiêu}{figure.caption.14}{}}
\@writefile{lof}{\contentsline {figure}{\numberline {2.2}{\ignorespaces V\IeC {\'\i } d\IeC {\d u} minh h\IeC {\d o}a v\IeC {\`\ecircumflex } overfit v\IeC {\`a} underfit\relax }}{10}{figure.caption.14}}
\@writefile{toc}{\contentsline {section}{\numberline {2.2}Ensemble Learning}{10}{section.2.2}}
\@writefile{toc}{\contentsline {subsection}{\numberline {2.2.1}Gi\IeC {\'\ohorn }i thi\IeC {\d \ecircumflex }u v\IeC {\`\ecircumflex } Ensemble Learning}{10}{subsection.2.2.1}}
\@writefile{toc}{\contentsline {subsection}{\numberline {2.2.2}C\IeC {\'a}ch th\IeC {\'\uhorn }c ho\IeC {\d a}t \IeC {\dj }\IeC {\d \ocircumflex }ng c\IeC {\h u}a Ensemble Learning}{11}{subsection.2.2.2}}
\@writefile{lof}{\contentsline {figure}{\numberline {2.3}{\ignorespaces Ba l\IeC {\'y} do ph\IeC {\uhorn }\IeC {\ohorn }ng ph\IeC {\'a}p Ensemble t\IeC {\'\ocircumflex }t h\IeC {\ohorn }n  (a) T\IeC {\'\i }nh th\IeC {\'\ocircumflex }ng k\IeC {\^e} (b) Kh\IeC {\h a} n\IeC {\u a}ng t\IeC {\'\i }nh to\IeC {\'a}n (c) T\IeC {\'\i }nh \IeC {\dj }\IeC {\d a}i di\IeC {\d \ecircumflex }n\relax }}{11}{figure.caption.15}}
\newlabel{fig:my_label}{{2.3}{11}{Ba lý do phương pháp Ensemble tốt hơn\\ (a) Tính thống kê (b) Khả năng tính toán (c) Tính đại diện\relax }{figure.caption.15}{}}
\citation{16}
\@writefile{toc}{\contentsline {section}{\numberline {2.3}Boosting}{12}{section.2.3}}
\@writefile{lof}{\contentsline {figure}{\numberline {2.4}{\ignorespaces Boosting\relax }}{12}{figure.caption.16}}
\newlabel{fig:my_label}{{2.4}{12}{Boosting\relax }{figure.caption.16}{}}
\@writefile{loa}{\contentsline {algorithm}{\numberline {1}{\ignorespaces Th\IeC {\h u} t\IeC {\d u}c Boosting\relax }}{12}{algorithm.1}}
\newlabel{algo_1}{{1}{12}{Thủ tục Boosting\relax }{algorithm.1}{}}
\@writefile{toc}{\contentsline {section}{\numberline {2.4}Boosted Tree}{12}{section.2.4}}
\@writefile{toc}{\contentsline {subsection}{\numberline {2.4.1}Tree ensemble}{12}{subsection.2.4.1}}
\@writefile{lof}{\contentsline {figure}{\numberline {2.5}{\ignorespaces V\IeC {\'\i } d\IeC {\d u} minh h\IeC {\d o}a v\IeC {\`\ecircumflex } Tree ensemble\relax }}{13}{figure.caption.17}}
\newlabel{fig:my_label}{{2.5}{13}{Ví dụ minh họa về Tree ensemble\relax }{figure.caption.17}{}}
\@writefile{toc}{\contentsline {subsection}{\numberline {2.4.2}Additive training}{13}{subsection.2.4.2}}
\@writefile{toc}{\contentsline {subsection}{\numberline {2.4.3}Regularization}{14}{subsection.2.4.3}}
\@writefile{lof}{\contentsline {figure}{\numberline {2.6}{\ignorespaces V\IeC {\'\i } d\IeC {\d u} v\IeC {\`\ecircumflex } c\IeC {\^a}y theo c\IeC {\'a}ch \IeC {\dj }\IeC {\d i}nh ngh\IeC {\~\i }a m\IeC {\'\ohorn }i\relax }}{14}{figure.caption.18}}
\newlabel{fig:my_label2}{{2.6}{14}{Ví dụ về cây theo cách định nghĩa mới\relax }{figure.caption.18}{}}
\@writefile{lof}{\contentsline {figure}{\numberline {2.7}{\ignorespaces V\IeC {\'\i } d\IeC {\d u} c\IeC {\'a}ch t\IeC {\'\i }nh h\IeC {\`a}m m\IeC {\d u}c ti\IeC {\^e}u\relax }}{15}{figure.caption.19}}
\newlabel{fig:my_label3}{{2.7}{15}{Ví dụ cách tính hàm mục tiêu\relax }{figure.caption.19}{}}
\@writefile{toc}{\contentsline {subsection}{\numberline {2.4.4}H\IeC {\d o}c c\IeC {\'\acircumflex }u tr\IeC {\'u}c c\IeC {\^a}y}{15}{subsection.2.4.4}}
\@writefile{loa}{\contentsline {algorithm}{\numberline {2}{\ignorespaces Thu\IeC {\d \acircumflex }t to\IeC {\'a}n Tree Boosting\relax }}{16}{algorithm.2}}
\newlabel{algo_2}{{2}{16}{Thuật toán Tree Boosting\relax }{algorithm.2}{}}
\@setckpt{./Chapter2/chapter2}{
\setcounter{page}{17}
\setcounter{equation}{19}
\setcounter{enumi}{3}
\setcounter{enumii}{0}
\setcounter{enumiii}{0}
\setcounter{enumiv}{0}
\setcounter{footnote}{0}
\setcounter{mpfootnote}{0}
\setcounter{part}{0}
\setcounter{chapter}{2}
\setcounter{section}{4}
\setcounter{subsection}{4}
\setcounter{subsubsection}{0}
\setcounter{paragraph}{0}
\setcounter{subparagraph}{0}
\setcounter{figure}{7}
\setcounter{table}{0}
\setcounter{float@type}{8}
\setcounter{LT@tables}{0}
\setcounter{LT@chunks}{0}
\setcounter{ContinuedFloat}{0}
\setcounter{Item}{3}
\setcounter{Hfootnote}{0}
\setcounter{bookmark@seq@number}{26}
\setcounter{cp@cntr}{0}
\setcounter{algorithm}{2}
\setcounter{ALC@unique}{14}
\setcounter{ALC@line}{9}
\setcounter{ALC@rem}{0}
\setcounter{ALC@depth}{0}
\setcounter{parentequation}{0}
\setcounter{NAT@ctr}{0}
\setcounter{section@level}{2}
}
