\relax 
\providecommand\hyper@newdestlabel[2]{}
\providecommand\HyperFirstAtBeginDocument{\AtBeginDocument}
\HyperFirstAtBeginDocument{\ifx\hyper@anchor\@undefined
\global\let\oldcontentsline\contentsline
\gdef\contentsline#1#2#3#4{\oldcontentsline{#1}{#2}{#3}}
\global\let\oldnewlabel\newlabel
\gdef\newlabel#1#2{\newlabelxx{#1}#2}
\gdef\newlabelxx#1#2#3#4#5#6{\oldnewlabel{#1}{{#2}{#3}}}
\AtEndDocument{\ifx\hyper@anchor\@undefined
\let\contentsline\oldcontentsline
\let\newlabel\oldnewlabel
\fi}
\fi}
\global\let\hyper@last\relax 
\gdef\HyperFirstAtBeginDocument#1{#1}
\providecommand\HyField@AuxAddToFields[1]{}
\providecommand\HyField@AuxAddToCoFields[2]{}
\@input{cover.aux}
\@writefile{toc}{\contentsline {chapter}{DANH S\IeC {\'A}CH B\IeC {\h A}NG}{ii}{chapter*.2}}
\@writefile{toc}{\contentsline {chapter}{DANH S\IeC {\'A}CH H\IeC {\`I}NH V\IeC {\~E}}{iii}{chapter*.3}}
\@input{./Chapter1/chapter1.aux}
\@input{./Chapter3/chapter3.aux}
\@input{./Chapter4/chapter4.aux}
\@input{./References/ref.aux}
\providecommand\NAT@force@numbers{}\NAT@force@numbers
