\relax 
\providecommand\hyper@newdestlabel[2]{}
\@writefile{toc}{\contentsline {chapter}{\numberline {2}M\IeC {\^o} h\IeC {\`\i }nh Boosted Tree v\IeC {\`a}o ph\IeC {\'a}t hi\IeC {\d \ecircumflex }n x\IeC {\^a}m nh\IeC {\d \acircumflex }p m\IeC {\d a}ng}{8}{chapter.2}}
\@writefile{lof}{\addvspace {10\p@ }}
\@writefile{lot}{\addvspace {10\p@ }}
\@writefile{toc}{\contentsline {section}{\numberline {2.1}Gi\IeC {\'\ohorn }i thi\IeC {\d \ecircumflex }u b\IeC {\d \ocircumflex } d\IeC {\~\uhorn } li\IeC {\d \ecircumflex }u UNSW-NB15}{8}{section.2.1}}
\@writefile{toc}{\contentsline {subsection}{\numberline {2.1.1}Ph\IeC {\uhorn }\IeC {\ohorn }ng ph\IeC {\'a}p thu th\IeC {\d \acircumflex }p d\IeC {\~\uhorn } li\IeC {\d \ecircumflex }u}{8}{subsection.2.1.1}}
\@writefile{lof}{\contentsline {figure}{\numberline {2.1}{\ignorespaces Ki\IeC {\'\ecircumflex }n tr\IeC {\'u}c m\IeC {\^o} h\IeC {\`\i }nh sinh b\IeC {\d \ocircumflex } d\IeC {\~\uhorn } li\IeC {\d \ecircumflex }u UNSW-NB15 \relax }}{9}{figure.caption.13}}
\@writefile{lot}{\contentsline {table}{\numberline {2.1}{\ignorespaces Ph\IeC {\^a}n b\IeC {\'\ocircumflex } b\IeC {\h a}n ghi c\IeC {\h u}a b\IeC {\d \ocircumflex } d\IeC {\~\uhorn } li\IeC {\d \ecircumflex }u\relax }}{9}{table.caption.14}}
\@writefile{toc}{\contentsline {subsection}{\numberline {2.1.2}C\IeC {\'\acircumflex }u h\IeC {\`\i }nh cho IXIA}{9}{subsection.2.1.2}}
\@writefile{toc}{\contentsline {subsection}{\numberline {2.1.3}Danh s\IeC {\'a}ch c\IeC {\'a}c \IeC {\dj }\IeC {\d \abreve }c tr\IeC {\uhorn }ng trong b\IeC {\d \ocircumflex } d\IeC {\~\uhorn } li\IeC {\d \ecircumflex }u}{10}{subsection.2.1.3}}
\@writefile{lof}{\contentsline {figure}{\numberline {2.2}{\ignorespaces Minh h\IeC {\d o}a m\IeC {\^o} h\IeC {\`\i }nh t\IeC {\d a}o b\IeC {\d \ocircumflex } d\IeC {\~\uhorn } li\IeC {\d \ecircumflex }u UNSW-NB15\relax }}{10}{figure.caption.15}}
\@writefile{lot}{\contentsline {table}{\numberline {2.2}{\ignorespaces Flow features\relax }}{10}{table.caption.16}}
\newlabel{tab:my_label}{{2.2}{10}{Flow features\relax }{table.caption.16}{}}
\@writefile{lot}{\contentsline {table}{\numberline {2.3}{\ignorespaces Basic features\relax }}{11}{table.caption.17}}
\newlabel{tab:my_label}{{2.3}{11}{Basic features\relax }{table.caption.17}{}}
\@writefile{lot}{\contentsline {table}{\numberline {2.4}{\ignorespaces Content features\relax }}{11}{table.caption.18}}
\newlabel{tab:my_label}{{2.4}{11}{Content features\relax }{table.caption.18}{}}
\@writefile{lot}{\contentsline {table}{\numberline {2.5}{\ignorespaces Time features\relax }}{11}{table.caption.19}}
\newlabel{tab:my_label}{{2.5}{11}{Time features\relax }{table.caption.19}{}}
\@writefile{lot}{\contentsline {table}{\numberline {2.6}{\ignorespaces Additional features\relax }}{12}{table.caption.20}}
\newlabel{tab:my_label}{{2.6}{12}{Additional features\relax }{table.caption.20}{}}
\@writefile{lot}{\contentsline {table}{\numberline {2.7}{\ignorespaces Flow features\relax }}{12}{table.caption.21}}
\newlabel{tab:my_label}{{2.7}{12}{Flow features\relax }{table.caption.21}{}}
\@writefile{toc}{\contentsline {section}{\numberline {2.2}Ph\IeC {\uhorn }\IeC {\ohorn }ng ph\IeC {\'a}p \IeC {\dj }\IeC {\'a}nh gi\IeC {\'a}}{12}{section.2.2}}
\@writefile{toc}{\contentsline {section}{\numberline {2.3}Th\IeC {\d \uhorn }c nghi\IeC {\d \ecircumflex }m}{13}{section.2.3}}
\@writefile{toc}{\contentsline {subsection}{\numberline {2.3.1}H\IeC {\d \ecircumflex } th\IeC {\'\ocircumflex }ng m\IeC {\'a}y t\IeC {\'\i }nh}{13}{subsection.2.3.1}}
\@writefile{toc}{\contentsline {subsection}{\numberline {2.3.2}C\IeC {\'a}c ch\IeC {\uhorn }\IeC {\ohorn }ng tr\IeC {\`\i }nh v\IeC {\`a} th\IeC {\uhorn } vi\IeC {\d \ecircumflex }n ph\IeC {\`\acircumflex }n m\IeC {\`\ecircumflex }m}{13}{subsection.2.3.2}}
\@writefile{toc}{\contentsline {subsubsection}{\numberline {2.3.2.1}Scikit-learn}{13}{subsubsection.2.3.2.1}}
\@writefile{toc}{\contentsline {subsection}{\numberline {2.3.3}C\IeC {\`a}i \IeC {\dj }\IeC {\d \abreve }t}{14}{subsection.2.3.3}}
\@writefile{toc}{\contentsline {section}{\numberline {2.4}Ti\IeC {\`\ecircumflex }n x\IeC {\h \uhorn } l\IeC {\'y} d\IeC {\~\uhorn } li\IeC {\d \ecircumflex }u}{14}{section.2.4}}
\@writefile{toc}{\contentsline {subsection}{\numberline {2.4.1}Lo\IeC {\d a}i b\IeC {\h o} c\IeC {\'a}c \IeC {\dj }\IeC {\d \abreve }c tr\IeC {\uhorn }ng d\IeC {\uhorn } th\IeC {\`\uhorn }a}{14}{subsection.2.4.1}}
\@writefile{toc}{\contentsline {subsection}{\numberline {2.4.2}X\IeC {\h \uhorn } l\IeC {\'y} c\IeC {\'a}c d\IeC {\~\uhorn } li\IeC {\d \ecircumflex }u d\IeC {\d a}ng nominal}{14}{subsection.2.4.2}}
\@writefile{lot}{\contentsline {table}{\numberline {2.8}{\ignorespaces C\IeC {\'a}c \IeC {\dj }\IeC {\d \abreve }c tr\IeC {\uhorn }ng d\IeC {\d a}ng nominal\relax }}{14}{table.caption.24}}
\@writefile{lot}{\contentsline {table}{\numberline {2.9}{\ignorespaces \IeC {\DJ }\IeC {\d \abreve }c tr\IeC {\uhorn }ng service bi\IeC {\h \ecircumflex }u di\IeC {\~\ecircumflex }n d\IeC {\uhorn }\IeC {\'\ohorn }i d\IeC {\d a}ng One-hot Encoding\relax }}{15}{table.caption.25}}
\@writefile{toc}{\contentsline {section}{\numberline {2.5}C\IeC {\'a}c m\IeC {\^o} h\IeC {\`\i }nh th\IeC {\d \uhorn }c nghi\IeC {\d \ecircumflex }m}{15}{section.2.5}}
\@writefile{toc}{\contentsline {subsection}{\numberline {2.5.1}Ph\IeC {\^a}n l\IeC {\'\ohorn }p 2 nh\IeC {\~a}n}{15}{subsection.2.5.1}}
\@writefile{lot}{\contentsline {table}{\numberline {2.10}{\ignorespaces Caption\relax }}{15}{table.caption.27}}
\newlabel{tab:my_label}{{2.10}{15}{Caption\relax }{table.caption.27}{}}
\@writefile{lot}{\contentsline {table}{\numberline {2.11}{\ignorespaces M\IeC {\^o} h\IeC {\`\i }nh Boosted Tree v\IeC {\'\ohorn }i b\IeC {\d \ocircumflex } ph\IeC {\^a}n l\IeC {\'\ohorn }p 2 nh\IeC {\~a}n\relax }}{16}{table.caption.28}}
\newlabel{tab:my_label}{{2.11}{16}{Mô hình Boosted Tree với bộ phân lớp 2 nhãn\relax }{table.caption.28}{}}
\@writefile{lot}{\contentsline {table}{\numberline {2.12}{\ignorespaces Adaboosting\relax }}{16}{table.caption.30}}
\newlabel{tab:my_label}{{2.12}{16}{Adaboosting\relax }{table.caption.30}{}}
\@writefile{lot}{\contentsline {table}{\numberline {2.13}{\ignorespaces Naive Bayes\relax }}{16}{table.caption.31}}
\newlabel{tab:my_label}{{2.13}{16}{Naive Bayes\relax }{table.caption.31}{}}
\@writefile{toc}{\contentsline {subsection}{\numberline {2.5.2}Ph\IeC {\^a}n l\IeC {\'\ohorn }p 10 nh\IeC {\~a}n}{16}{subsection.2.5.2}}
\@writefile{lot}{\contentsline {table}{\numberline {2.14}{\ignorespaces Caption\relax }}{16}{table.caption.32}}
\newlabel{tab:my_label}{{2.14}{16}{Caption\relax }{table.caption.32}{}}
\@writefile{lot}{\contentsline {table}{\numberline {2.15}{\ignorespaces Caption\relax }}{16}{table.caption.33}}
\newlabel{tab:my_label}{{2.15}{16}{Caption\relax }{table.caption.33}{}}
\@writefile{lot}{\contentsline {table}{\numberline {2.16}{\ignorespaces M\IeC {\^o} h\IeC {\`\i }nh Boosted Tree v\IeC {\'\ohorn }i b\IeC {\d \ocircumflex } ph\IeC {\^a}n l\IeC {\'\ohorn }p 10 nh\IeC {\~a}n\relax }}{17}{table.caption.34}}
\newlabel{tab:my_label}{{2.16}{17}{Mô hình Boosted Tree với bộ phân lớp 10 nhãn\relax }{table.caption.34}{}}
\@writefile{lot}{\contentsline {table}{\numberline {2.17}{\ignorespaces Ada Boosting\relax }}{17}{table.caption.36}}
\newlabel{tab:my_label}{{2.17}{17}{Ada Boosting\relax }{table.caption.36}{}}
\@writefile{lot}{\contentsline {table}{\numberline {2.18}{\ignorespaces Naive Bayes\relax }}{17}{table.caption.37}}
\newlabel{tab:my_label}{{2.18}{17}{Naive Bayes\relax }{table.caption.37}{}}
\@writefile{toc}{\contentsline {section}{\numberline {2.6}Nh\IeC {\d \acircumflex }n x\IeC {\'e}t, \IeC {\dj }\IeC {\'a}nh gi\IeC {\'a}}{18}{section.2.6}}
\@setckpt{./Chapter3/chapter3}{
\setcounter{page}{19}
\setcounter{equation}{3}
\setcounter{enumi}{0}
\setcounter{enumii}{0}
\setcounter{enumiii}{0}
\setcounter{enumiv}{0}
\setcounter{footnote}{0}
\setcounter{mpfootnote}{0}
\setcounter{part}{0}
\setcounter{chapter}{2}
\setcounter{section}{6}
\setcounter{subsection}{0}
\setcounter{subsubsection}{0}
\setcounter{paragraph}{0}
\setcounter{subparagraph}{0}
\setcounter{figure}{2}
\setcounter{table}{18}
\setcounter{float@type}{8}
\setcounter{LT@tables}{0}
\setcounter{LT@chunks}{0}
\setcounter{ContinuedFloat}{0}
\setcounter{Item}{0}
\setcounter{Hfootnote}{0}
\setcounter{bookmark@seq@number}{31}
\setcounter{cp@cntr}{0}
\setcounter{algorithm}{0}
\setcounter{ALC@unique}{0}
\setcounter{ALC@line}{0}
\setcounter{ALC@rem}{0}
\setcounter{ALC@depth}{0}
\setcounter{parentequation}{0}
\setcounter{NAT@ctr}{0}
\setcounter{section@level}{1}
}
