\relax 
\providecommand\hyper@newdestlabel[2]{}
\bibcite{1}{{1}{}{{}}{{}}}
\bibcite{2}{{2}{}{{}}{{}}}
\bibcite{3}{{3}{}{{}}{{}}}
\bibcite{4}{{4}{}{{}}{{}}}
\bibcite{5}{{5}{}{{}}{{}}}
\bibcite{6}{{6}{}{{}}{{}}}
\bibcite{7}{{7}{}{{}}{{}}}
\bibcite{8}{{8}{}{{}}{{}}}
\bibcite{9}{{9}{}{{}}{{}}}
\bibcite{10}{{10}{}{{}}{{}}}
\bibcite{11}{{11}{}{{}}{{}}}
\bibcite{12}{{12}{}{{}}{{}}}
\bibcite{13}{{13}{}{{}}{{}}}
\bibcite{14}{{14}{}{{}}{{}}}
\bibcite{15}{{15}{}{{}}{{}}}
\bibcite{16}{{16}{}{{}}{{}}}
\bibcite{wiki}{{17}{}{{}}{{}}}
\@writefile{toc}{\contentsline {chapter}{T\IeC {\`A}I LI\IeC {\d \ECIRCUMFLEX }U THAM KH\IeC {\h A}O}{20}{chapter*.38}}
\@setckpt{./References/ref}{
\setcounter{page}{21}
\setcounter{equation}{0}
\setcounter{enumi}{0}
\setcounter{enumii}{0}
\setcounter{enumiii}{0}
\setcounter{enumiv}{0}
\setcounter{footnote}{0}
\setcounter{mpfootnote}{0}
\setcounter{part}{0}
\setcounter{chapter}{3}
\setcounter{section}{0}
\setcounter{subsection}{0}
\setcounter{subsubsection}{0}
\setcounter{paragraph}{0}
\setcounter{subparagraph}{0}
\setcounter{figure}{0}
\setcounter{table}{0}
\setcounter{float@type}{8}
\setcounter{LT@tables}{0}
\setcounter{LT@chunks}{0}
\setcounter{ContinuedFloat}{0}
\setcounter{Item}{0}
\setcounter{Hfootnote}{0}
\setcounter{bookmark@seq@number}{33}
\setcounter{cp@cntr}{0}
\setcounter{algorithm}{0}
\setcounter{ALC@unique}{0}
\setcounter{ALC@line}{0}
\setcounter{ALC@rem}{0}
\setcounter{ALC@depth}{0}
\setcounter{parentequation}{0}
\setcounter{NAT@ctr}{17}
\setcounter{section@level}{1}
}
