\relax 
\providecommand\hyper@newdestlabel[2]{}
\@writefile{toc}{\contentsline {chapter}{\numberline {1}T\IeC {\h \ocircumflex }ng quan v\IeC {\`\ecircumflex } ph\IeC {\'a}t hi\IeC {\d \ecircumflex }n x\IeC {\^a}m nh\IeC {\d \acircumflex }p m\IeC {\d a}ng}{1}{chapter.1}}
\@writefile{lof}{\addvspace {10\p@ }}
\@writefile{lot}{\addvspace {10\p@ }}
\@writefile{toc}{\contentsline {section}{\numberline {1.1}C\IeC {\'a}c v\IeC {\'\acircumflex }n \IeC {\dj }\IeC {\`\ecircumflex } v\IeC {\`\ecircumflex } an to\IeC {\`a}n th\IeC {\^o}ng tin}{1}{section.1.1}}
\@writefile{toc}{\contentsline {subsection}{\numberline {1.1.1}M\IeC {\d u}c ti\IeC {\^e}u c\IeC {\h u}a vi\IeC {\d \ecircumflex }c \IeC {\dj }\IeC {\h a}m b\IeC {\h a}o an to\IeC {\`a}n th\IeC {\^o}ng tin}{1}{subsection.1.1.1}}
\citation{wiki}
\@writefile{lof}{\contentsline {figure}{\numberline {1.1}{\ignorespaces C\IeC {\'a}c v\IeC {\'\acircumflex }n \IeC {\dj }\IeC {\`\ecircumflex } v\IeC {\`\ecircumflex } an to\IeC {\`a}n th\IeC {\^o}ng tin\relax }}{2}{figure.caption.4}}
\providecommand*\caption@xref[2]{\@setref\relax\@undefined{#1}}
\newlabel{fig:my_label}{{1.1}{2}{Các vấn đề về an toàn thông tin\relax }{figure.caption.4}{}}
\@writefile{toc}{\contentsline {subsection}{\numberline {1.1.2}T\IeC {\'\acircumflex }n c\IeC {\^o}ng m\IeC {\d a}ng}{2}{subsection.1.1.2}}
\@writefile{toc}{\contentsline {section}{\numberline {1.2}Ph\IeC {\'a}t hi\IeC {\d \ecircumflex }n x\IeC {\^a}m nh\IeC {\d \acircumflex }p m\IeC {\d a}ng}{2}{section.1.2}}
\@writefile{toc}{\contentsline {section}{\numberline {1.3}S\IeC {\d \uhorn } c\IeC {\`\acircumflex }n thi\IeC {\'\ecircumflex }t c\IeC {\h u}a ph\IeC {\'a}t hi\IeC {\d \ecircumflex }n x\IeC {\^a}m nh\IeC {\d \acircumflex }p m\IeC {\d a}ng}{3}{section.1.3}}
\citation{9}
\citation{11}
\citation{12}
\@writefile{toc}{\contentsline {section}{\numberline {1.4}Ph\IeC {\^a}n lo\IeC {\d a}i ph\IeC {\'a}t hi\IeC {\d \ecircumflex }n x\IeC {\^a}m nh\IeC {\d \acircumflex }p}{4}{section.1.4}}
\@writefile{toc}{\contentsline {subsection}{\numberline {1.4.1}Ph\IeC {\^a}n lo\IeC {\d a}i theo k\IeC {\~y} thu\IeC {\d \acircumflex }t ph\IeC {\'a}t hi\IeC {\d \ecircumflex }n}{4}{subsection.1.4.1}}
\citation{2}
\citation{9}
\citation{13,14}
\@writefile{toc}{\contentsline {subsection}{\numberline {1.4.2}Ph\IeC {\^a}n lo\IeC {\d a}i theo c\IeC {\^o}ng ngh\IeC {\d \ecircumflex }}{5}{subsection.1.4.2}}
\@writefile{lof}{\contentsline {figure}{\numberline {1.2}{\ignorespaces HIDS\relax }}{5}{figure.caption.8}}
\newlabel{fig:my_label}{{1.2}{5}{HIDS\relax }{figure.caption.8}{}}
\citation{8}
\@writefile{lof}{\contentsline {figure}{\numberline {1.3}{\ignorespaces NIDS\relax }}{6}{figure.caption.10}}
\newlabel{fig:my_label}{{1.3}{6}{NIDS\relax }{figure.caption.10}{}}
\citation{15}
\@writefile{toc}{\contentsline {subsection}{\numberline {1.4.3}K\IeC {\'\ecircumflex }t lu\IeC {\d \acircumflex }n}{7}{subsection.1.4.3}}
\@writefile{toc}{\contentsline {section}{\numberline {1.5}M\IeC {\d u}c ti\IeC {\^e}u c\IeC {\h u}a \IeC {\dj }\IeC {\`\ocircumflex } \IeC {\'a}n}{7}{section.1.5}}
\@setckpt{./Chapter1/chapter1}{
\setcounter{page}{8}
\setcounter{equation}{0}
\setcounter{enumi}{0}
\setcounter{enumii}{0}
\setcounter{enumiii}{0}
\setcounter{enumiv}{0}
\setcounter{footnote}{0}
\setcounter{mpfootnote}{0}
\setcounter{part}{0}
\setcounter{chapter}{1}
\setcounter{section}{5}
\setcounter{subsection}{0}
\setcounter{subsubsection}{0}
\setcounter{paragraph}{0}
\setcounter{subparagraph}{0}
\setcounter{figure}{3}
\setcounter{table}{0}
\setcounter{float@type}{8}
\setcounter{LT@tables}{0}
\setcounter{LT@chunks}{0}
\setcounter{ContinuedFloat}{0}
\setcounter{Item}{0}
\setcounter{Hfootnote}{0}
\setcounter{bookmark@seq@number}{13}
\setcounter{cp@cntr}{0}
\setcounter{algorithm}{0}
\setcounter{ALC@unique}{0}
\setcounter{ALC@line}{0}
\setcounter{ALC@rem}{0}
\setcounter{ALC@depth}{0}
\setcounter{parentequation}{0}
\setcounter{NAT@ctr}{0}
\setcounter{section@level}{1}
}
